$date
	Sun Jul  5 18:19:19 2020
$end
$version
	Icarus Verilog
$end
$timescale
	1ps
$end
$scope module ShifterR_tb $end
$var wire 8 ! out [7:0] $end
$var reg 1 " clk $end
$var reg 10 # in [9:0] $end
$var reg 1 $ inMSB $end
$var reg 1 % load $end
$var reg 1 & shift $end
$scope module SHIFTERR $end
$var wire 1 " clk $end
$var wire 10 ' in [9:0] $end
$var wire 1 $ inMSB $end
$var wire 1 % load $end
$var wire 10 ( out [9:0] $end
$var wire 1 & shift $end
$var wire 1 ) shiftload $end
$var wire 10 * shifter [9:0] $end
$var wire 10 + next [9:0] $end
$scope module BIT0 $end
$var wire 1 " clk $end
$var wire 1 , in $end
$var wire 1 - out $end
$var wire 1 ) load $end
$var wire 1 . dffin $end
$scope module DFF $end
$var wire 1 " clk $end
$var wire 1 . in $end
$var reg 1 - out $end
$upscope $end
$scope module MUX $end
$var wire 1 - a $end
$var wire 1 , b $end
$var wire 1 ) sel $end
$var wire 1 / sb $end
$var wire 1 0 sa $end
$var wire 1 . out $end
$var wire 1 1 nsel $end
$scope module AND1 $end
$var wire 1 - a $end
$var wire 1 0 out $end
$var wire 1 1 b $end
$upscope $end
$scope module AND2 $end
$var wire 1 , a $end
$var wire 1 / out $end
$var wire 1 ) b $end
$upscope $end
$scope module NOT $end
$var wire 1 1 out $end
$var wire 1 ) in $end
$upscope $end
$scope module OR $end
$var wire 1 0 a $end
$var wire 1 / b $end
$var wire 1 . out $end
$upscope $end
$upscope $end
$upscope $end
$scope module BIT1 $end
$var wire 1 " clk $end
$var wire 1 2 in $end
$var wire 1 3 out $end
$var wire 1 ) load $end
$var wire 1 4 dffin $end
$scope module DFF $end
$var wire 1 " clk $end
$var wire 1 4 in $end
$var reg 1 3 out $end
$upscope $end
$scope module MUX $end
$var wire 1 3 a $end
$var wire 1 2 b $end
$var wire 1 ) sel $end
$var wire 1 5 sb $end
$var wire 1 6 sa $end
$var wire 1 4 out $end
$var wire 1 7 nsel $end
$scope module AND1 $end
$var wire 1 3 a $end
$var wire 1 6 out $end
$var wire 1 7 b $end
$upscope $end
$scope module AND2 $end
$var wire 1 2 a $end
$var wire 1 5 out $end
$var wire 1 ) b $end
$upscope $end
$scope module NOT $end
$var wire 1 7 out $end
$var wire 1 ) in $end
$upscope $end
$scope module OR $end
$var wire 1 6 a $end
$var wire 1 5 b $end
$var wire 1 4 out $end
$upscope $end
$upscope $end
$upscope $end
$scope module BIT2 $end
$var wire 1 " clk $end
$var wire 1 8 in $end
$var wire 1 9 out $end
$var wire 1 ) load $end
$var wire 1 : dffin $end
$scope module DFF $end
$var wire 1 " clk $end
$var wire 1 : in $end
$var reg 1 9 out $end
$upscope $end
$scope module MUX $end
$var wire 1 9 a $end
$var wire 1 8 b $end
$var wire 1 ) sel $end
$var wire 1 ; sb $end
$var wire 1 < sa $end
$var wire 1 : out $end
$var wire 1 = nsel $end
$scope module AND1 $end
$var wire 1 9 a $end
$var wire 1 < out $end
$var wire 1 = b $end
$upscope $end
$scope module AND2 $end
$var wire 1 8 a $end
$var wire 1 ; out $end
$var wire 1 ) b $end
$upscope $end
$scope module NOT $end
$var wire 1 = out $end
$var wire 1 ) in $end
$upscope $end
$scope module OR $end
$var wire 1 < a $end
$var wire 1 ; b $end
$var wire 1 : out $end
$upscope $end
$upscope $end
$upscope $end
$scope module BIT3 $end
$var wire 1 " clk $end
$var wire 1 > in $end
$var wire 1 ? out $end
$var wire 1 ) load $end
$var wire 1 @ dffin $end
$scope module DFF $end
$var wire 1 " clk $end
$var wire 1 @ in $end
$var reg 1 ? out $end
$upscope $end
$scope module MUX $end
$var wire 1 ? a $end
$var wire 1 > b $end
$var wire 1 ) sel $end
$var wire 1 A sb $end
$var wire 1 B sa $end
$var wire 1 @ out $end
$var wire 1 C nsel $end
$scope module AND1 $end
$var wire 1 ? a $end
$var wire 1 B out $end
$var wire 1 C b $end
$upscope $end
$scope module AND2 $end
$var wire 1 > a $end
$var wire 1 A out $end
$var wire 1 ) b $end
$upscope $end
$scope module NOT $end
$var wire 1 C out $end
$var wire 1 ) in $end
$upscope $end
$scope module OR $end
$var wire 1 B a $end
$var wire 1 A b $end
$var wire 1 @ out $end
$upscope $end
$upscope $end
$upscope $end
$scope module BIT4 $end
$var wire 1 " clk $end
$var wire 1 D in $end
$var wire 1 E out $end
$var wire 1 ) load $end
$var wire 1 F dffin $end
$scope module DFF $end
$var wire 1 " clk $end
$var wire 1 F in $end
$var reg 1 E out $end
$upscope $end
$scope module MUX $end
$var wire 1 E a $end
$var wire 1 D b $end
$var wire 1 ) sel $end
$var wire 1 G sb $end
$var wire 1 H sa $end
$var wire 1 F out $end
$var wire 1 I nsel $end
$scope module AND1 $end
$var wire 1 E a $end
$var wire 1 H out $end
$var wire 1 I b $end
$upscope $end
$scope module AND2 $end
$var wire 1 D a $end
$var wire 1 G out $end
$var wire 1 ) b $end
$upscope $end
$scope module NOT $end
$var wire 1 I out $end
$var wire 1 ) in $end
$upscope $end
$scope module OR $end
$var wire 1 H a $end
$var wire 1 G b $end
$var wire 1 F out $end
$upscope $end
$upscope $end
$upscope $end
$scope module BIT5 $end
$var wire 1 " clk $end
$var wire 1 J in $end
$var wire 1 K out $end
$var wire 1 ) load $end
$var wire 1 L dffin $end
$scope module DFF $end
$var wire 1 " clk $end
$var wire 1 L in $end
$var reg 1 K out $end
$upscope $end
$scope module MUX $end
$var wire 1 K a $end
$var wire 1 J b $end
$var wire 1 ) sel $end
$var wire 1 M sb $end
$var wire 1 N sa $end
$var wire 1 L out $end
$var wire 1 O nsel $end
$scope module AND1 $end
$var wire 1 K a $end
$var wire 1 N out $end
$var wire 1 O b $end
$upscope $end
$scope module AND2 $end
$var wire 1 J a $end
$var wire 1 M out $end
$var wire 1 ) b $end
$upscope $end
$scope module NOT $end
$var wire 1 O out $end
$var wire 1 ) in $end
$upscope $end
$scope module OR $end
$var wire 1 N a $end
$var wire 1 M b $end
$var wire 1 L out $end
$upscope $end
$upscope $end
$upscope $end
$scope module BIT6 $end
$var wire 1 " clk $end
$var wire 1 P in $end
$var wire 1 Q out $end
$var wire 1 ) load $end
$var wire 1 R dffin $end
$scope module DFF $end
$var wire 1 " clk $end
$var wire 1 R in $end
$var reg 1 Q out $end
$upscope $end
$scope module MUX $end
$var wire 1 Q a $end
$var wire 1 P b $end
$var wire 1 ) sel $end
$var wire 1 S sb $end
$var wire 1 T sa $end
$var wire 1 R out $end
$var wire 1 U nsel $end
$scope module AND1 $end
$var wire 1 Q a $end
$var wire 1 T out $end
$var wire 1 U b $end
$upscope $end
$scope module AND2 $end
$var wire 1 P a $end
$var wire 1 S out $end
$var wire 1 ) b $end
$upscope $end
$scope module NOT $end
$var wire 1 U out $end
$var wire 1 ) in $end
$upscope $end
$scope module OR $end
$var wire 1 T a $end
$var wire 1 S b $end
$var wire 1 R out $end
$upscope $end
$upscope $end
$upscope $end
$scope module BIT7 $end
$var wire 1 " clk $end
$var wire 1 V in $end
$var wire 1 W out $end
$var wire 1 ) load $end
$var wire 1 X dffin $end
$scope module DFF $end
$var wire 1 " clk $end
$var wire 1 X in $end
$var reg 1 W out $end
$upscope $end
$scope module MUX $end
$var wire 1 W a $end
$var wire 1 V b $end
$var wire 1 ) sel $end
$var wire 1 Y sb $end
$var wire 1 Z sa $end
$var wire 1 X out $end
$var wire 1 [ nsel $end
$scope module AND1 $end
$var wire 1 W a $end
$var wire 1 Z out $end
$var wire 1 [ b $end
$upscope $end
$scope module AND2 $end
$var wire 1 V a $end
$var wire 1 Y out $end
$var wire 1 ) b $end
$upscope $end
$scope module NOT $end
$var wire 1 [ out $end
$var wire 1 ) in $end
$upscope $end
$scope module OR $end
$var wire 1 Z a $end
$var wire 1 Y b $end
$var wire 1 X out $end
$upscope $end
$upscope $end
$upscope $end
$scope module BIT8 $end
$var wire 1 " clk $end
$var wire 1 \ in $end
$var wire 1 ] out $end
$var wire 1 ) load $end
$var wire 1 ^ dffin $end
$scope module DFF $end
$var wire 1 " clk $end
$var wire 1 ^ in $end
$var reg 1 ] out $end
$upscope $end
$scope module MUX $end
$var wire 1 ] a $end
$var wire 1 \ b $end
$var wire 1 ) sel $end
$var wire 1 _ sb $end
$var wire 1 ` sa $end
$var wire 1 ^ out $end
$var wire 1 a nsel $end
$scope module AND1 $end
$var wire 1 ] a $end
$var wire 1 ` out $end
$var wire 1 a b $end
$upscope $end
$scope module AND2 $end
$var wire 1 \ a $end
$var wire 1 _ out $end
$var wire 1 ) b $end
$upscope $end
$scope module NOT $end
$var wire 1 a out $end
$var wire 1 ) in $end
$upscope $end
$scope module OR $end
$var wire 1 ` a $end
$var wire 1 _ b $end
$var wire 1 ^ out $end
$upscope $end
$upscope $end
$upscope $end
$scope module BIT9 $end
$var wire 1 " clk $end
$var wire 1 b in $end
$var wire 1 c out $end
$var wire 1 ) load $end
$var wire 1 d dffin $end
$scope module DFF $end
$var wire 1 " clk $end
$var wire 1 d in $end
$var reg 1 c out $end
$upscope $end
$scope module MUX $end
$var wire 1 c a $end
$var wire 1 b b $end
$var wire 1 ) sel $end
$var wire 1 e sb $end
$var wire 1 f sa $end
$var wire 1 d out $end
$var wire 1 g nsel $end
$scope module AND1 $end
$var wire 1 c a $end
$var wire 1 f out $end
$var wire 1 g b $end
$upscope $end
$scope module AND2 $end
$var wire 1 b a $end
$var wire 1 e out $end
$var wire 1 ) b $end
$upscope $end
$scope module NOT $end
$var wire 1 g out $end
$var wire 1 ) in $end
$upscope $end
$scope module OR $end
$var wire 1 f a $end
$var wire 1 e b $end
$var wire 1 d out $end
$upscope $end
$upscope $end
$upscope $end
$scope module MUX0 $end
$var wire 1 h a $end
$var wire 1 i b $end
$var wire 1 % sel $end
$var wire 1 j sb $end
$var wire 1 k sa $end
$var wire 1 l out $end
$var wire 1 m nsel $end
$scope module AND1 $end
$var wire 1 h a $end
$var wire 1 k out $end
$var wire 1 m b $end
$upscope $end
$scope module AND2 $end
$var wire 1 i a $end
$var wire 1 % b $end
$var wire 1 j out $end
$upscope $end
$scope module NOT $end
$var wire 1 % in $end
$var wire 1 m out $end
$upscope $end
$scope module OR $end
$var wire 1 k a $end
$var wire 1 j b $end
$var wire 1 l out $end
$upscope $end
$upscope $end
$scope module MUX1 $end
$var wire 1 n a $end
$var wire 1 o b $end
$var wire 1 % sel $end
$var wire 1 p sb $end
$var wire 1 q sa $end
$var wire 1 r out $end
$var wire 1 s nsel $end
$scope module AND1 $end
$var wire 1 n a $end
$var wire 1 q out $end
$var wire 1 s b $end
$upscope $end
$scope module AND2 $end
$var wire 1 o a $end
$var wire 1 % b $end
$var wire 1 p out $end
$upscope $end
$scope module NOT $end
$var wire 1 % in $end
$var wire 1 s out $end
$upscope $end
$scope module OR $end
$var wire 1 q a $end
$var wire 1 p b $end
$var wire 1 r out $end
$upscope $end
$upscope $end
$scope module MUX2 $end
$var wire 1 t a $end
$var wire 1 u b $end
$var wire 1 % sel $end
$var wire 1 v sb $end
$var wire 1 w sa $end
$var wire 1 x out $end
$var wire 1 y nsel $end
$scope module AND1 $end
$var wire 1 t a $end
$var wire 1 w out $end
$var wire 1 y b $end
$upscope $end
$scope module AND2 $end
$var wire 1 u a $end
$var wire 1 % b $end
$var wire 1 v out $end
$upscope $end
$scope module NOT $end
$var wire 1 % in $end
$var wire 1 y out $end
$upscope $end
$scope module OR $end
$var wire 1 w a $end
$var wire 1 v b $end
$var wire 1 x out $end
$upscope $end
$upscope $end
$scope module MUX3 $end
$var wire 1 z a $end
$var wire 1 { b $end
$var wire 1 % sel $end
$var wire 1 | sb $end
$var wire 1 } sa $end
$var wire 1 ~ out $end
$var wire 1 !" nsel $end
$scope module AND1 $end
$var wire 1 z a $end
$var wire 1 } out $end
$var wire 1 !" b $end
$upscope $end
$scope module AND2 $end
$var wire 1 { a $end
$var wire 1 % b $end
$var wire 1 | out $end
$upscope $end
$scope module NOT $end
$var wire 1 % in $end
$var wire 1 !" out $end
$upscope $end
$scope module OR $end
$var wire 1 } a $end
$var wire 1 | b $end
$var wire 1 ~ out $end
$upscope $end
$upscope $end
$scope module MUX4 $end
$var wire 1 "" a $end
$var wire 1 #" b $end
$var wire 1 % sel $end
$var wire 1 $" sb $end
$var wire 1 %" sa $end
$var wire 1 &" out $end
$var wire 1 '" nsel $end
$scope module AND1 $end
$var wire 1 "" a $end
$var wire 1 %" out $end
$var wire 1 '" b $end
$upscope $end
$scope module AND2 $end
$var wire 1 #" a $end
$var wire 1 % b $end
$var wire 1 $" out $end
$upscope $end
$scope module NOT $end
$var wire 1 % in $end
$var wire 1 '" out $end
$upscope $end
$scope module OR $end
$var wire 1 %" a $end
$var wire 1 $" b $end
$var wire 1 &" out $end
$upscope $end
$upscope $end
$scope module MUX5 $end
$var wire 1 (" a $end
$var wire 1 )" b $end
$var wire 1 % sel $end
$var wire 1 *" sb $end
$var wire 1 +" sa $end
$var wire 1 ," out $end
$var wire 1 -" nsel $end
$scope module AND1 $end
$var wire 1 (" a $end
$var wire 1 +" out $end
$var wire 1 -" b $end
$upscope $end
$scope module AND2 $end
$var wire 1 )" a $end
$var wire 1 % b $end
$var wire 1 *" out $end
$upscope $end
$scope module NOT $end
$var wire 1 % in $end
$var wire 1 -" out $end
$upscope $end
$scope module OR $end
$var wire 1 +" a $end
$var wire 1 *" b $end
$var wire 1 ," out $end
$upscope $end
$upscope $end
$scope module MUX6 $end
$var wire 1 ." a $end
$var wire 1 /" b $end
$var wire 1 % sel $end
$var wire 1 0" sb $end
$var wire 1 1" sa $end
$var wire 1 2" out $end
$var wire 1 3" nsel $end
$scope module AND1 $end
$var wire 1 ." a $end
$var wire 1 1" out $end
$var wire 1 3" b $end
$upscope $end
$scope module AND2 $end
$var wire 1 /" a $end
$var wire 1 % b $end
$var wire 1 0" out $end
$upscope $end
$scope module NOT $end
$var wire 1 % in $end
$var wire 1 3" out $end
$upscope $end
$scope module OR $end
$var wire 1 1" a $end
$var wire 1 0" b $end
$var wire 1 2" out $end
$upscope $end
$upscope $end
$scope module MUX7 $end
$var wire 1 4" a $end
$var wire 1 5" b $end
$var wire 1 % sel $end
$var wire 1 6" sb $end
$var wire 1 7" sa $end
$var wire 1 8" out $end
$var wire 1 9" nsel $end
$scope module AND1 $end
$var wire 1 4" a $end
$var wire 1 7" out $end
$var wire 1 9" b $end
$upscope $end
$scope module AND2 $end
$var wire 1 5" a $end
$var wire 1 % b $end
$var wire 1 6" out $end
$upscope $end
$scope module NOT $end
$var wire 1 % in $end
$var wire 1 9" out $end
$upscope $end
$scope module OR $end
$var wire 1 7" a $end
$var wire 1 6" b $end
$var wire 1 8" out $end
$upscope $end
$upscope $end
$scope module MUX8 $end
$var wire 1 :" a $end
$var wire 1 ;" b $end
$var wire 1 % sel $end
$var wire 1 <" sb $end
$var wire 1 =" sa $end
$var wire 1 >" out $end
$var wire 1 ?" nsel $end
$scope module AND1 $end
$var wire 1 :" a $end
$var wire 1 =" out $end
$var wire 1 ?" b $end
$upscope $end
$scope module AND2 $end
$var wire 1 ;" a $end
$var wire 1 % b $end
$var wire 1 <" out $end
$upscope $end
$scope module NOT $end
$var wire 1 % in $end
$var wire 1 ?" out $end
$upscope $end
$scope module OR $end
$var wire 1 =" a $end
$var wire 1 <" b $end
$var wire 1 >" out $end
$upscope $end
$upscope $end
$scope module MUX9 $end
$var wire 1 $ a $end
$var wire 1 @" b $end
$var wire 1 % sel $end
$var wire 1 A" sb $end
$var wire 1 B" sa $end
$var wire 1 C" out $end
$var wire 1 D" nsel $end
$scope module AND1 $end
$var wire 1 $ a $end
$var wire 1 B" out $end
$var wire 1 D" b $end
$upscope $end
$scope module AND2 $end
$var wire 1 @" a $end
$var wire 1 % b $end
$var wire 1 A" out $end
$upscope $end
$scope module NOT $end
$var wire 1 % in $end
$var wire 1 D" out $end
$upscope $end
$scope module OR $end
$var wire 1 B" a $end
$var wire 1 A" b $end
$var wire 1 C" out $end
$upscope $end
$upscope $end
$scope module OR $end
$var wire 1 & a $end
$var wire 1 % b $end
$var wire 1 ) out $end
$upscope $end
$upscope $end
$upscope $end
$enddefinitions $end
#0
$dumpvars
1D"
1C"
1B"
0A"
0@"
1?"
0>"
0="
0<"
1;"
0:"
19"
08"
07"
06"
15"
04"
13"
02"
01"
00"
0/"
0."
1-"
0,"
0+"
0*"
1)"
0("
1'"
0&"
0%"
0$"
0#"
0""
1!"
0~
0}
0|
1{
0z
1y
0x
0w
0v
0u
0t
1s
0r
0q
0p
0o
0n
1m
0l
0k
0j
1i
0h
1g
0f
0e
0d
0c
1b
1a
0`
0_
0^
0]
0\
1[
0Z
0Y
0X
0W
0V
1U
0T
0S
0R
0Q
0P
1O
0N
0M
0L
0K
0J
1I
0H
0G
0F
0E
0D
1C
0B
0A
0@
0?
0>
1=
0<
0;
0:
09
08
17
06
05
04
03
02
11
00
0/
0.
0-
0,
b1000000000 +
b0 *
0)
b0 (
b110101001 '
0&
0%
1$
b110101001 #
0"
b0 !
$end
#1
1"
#2
0"
#3
1"
#4
1.
1@
1L
1X
1^
1/
1A
1M
1Y
1_
0b
1,
1>
1J
1V
1\
0C"
0d
1l
1~
1,"
18"
b110101001 +
1>"
0B"
0g
0e
0a
0[
0U
0O
0I
0C
0=
07
01
1j
0m
0s
0y
1|
0!"
0'"
1*"
0-"
03"
16"
09"
1<"
0?"
0D"
1)
0"
1%
#5
1"
#6
1P
1D
18
12"
1&"
1x
17"
11"
1%"
1w
1`
14"
1Z
1."
1N
1""
1B
1t
10
b10101001 !
1]
1W
1K
1?
b110101001 (
b110101001 *
1-
1b
0,
0>
0J
1V
0\
1C"
1^
1X
1L
1@
1.
0l
0~
0,"
18"
b1011010100 +
0>"
1B"
1g
1a
0_
1[
0Y
1U
1O
0M
1I
1C
0A
1=
17
11
0/
0j
1m
1s
1y
0|
1!"
1'"
0*"
1-"
13"
06"
19"
0<"
1?"
1D"
0)
0"
0%
#7
1"
#8
0^
0L
0@
0.
1d
0`
0Z
1R
0N
1F
0B
1:
00
0g
1e
0a
0[
1Y
0U
1S
0O
0I
1G
0C
0=
1;
07
01
1)
0"
1&
#9
1"
#10
1^
0X
1L
0F
1@
0:
14
1_
0Y
1M
0G
1A
0;
15
1\
0V
1J
0D
1>
08
12
1>"
08"
1,"
0&"
1~
0x
b1101101010 +
1r
1="
07"
1+"
0%"
1}
0w
1q
1:"
04"
1("
0""
1z
0t
1n
b11010100 !
1c
0]
1Q
0K
1E
0?
19
b1011010100 (
b1011010100 *
0-
0"
#11
1"
#12
1.
04
1:
0@
1F
0R
1X
1/
05
1;
0A
1G
0S
1Y
1,
02
18
0>
1D
0P
1V
1l
0r
1x
0~
1&"
02"
b1110110101 +
18"
1k
0q
1w
0}
1%"
01"
17"
1h
0n
1t
0z
1""
0."
b1101010 !
14"
13
09
1?
0E
1K
0W
b1101101010 (
b1101101010 *
1]
0"
#13
1"
#14
1R
0L
1@
0:
14
0.
1S
0M
1A
0;
15
0/
1P
0J
1>
08
12
0,
12"
0,"
1~
0x
1r
b1111011010 +
0l
11"
0+"
1}
0w
1q
0k
1."
0("
1z
0t
1n
0h
b10110101 !
1W
0Q
1E
0?
19
03
b1110110101 (
b1110110101 *
1-
0"
#15
1"
#16
1.
04
1:
0F
1L
1/
05
1;
0G
1M
1,
02
18
0D
1J
1l
0r
1x
0&"
b1111101101 +
1,"
1k
0q
1w
0%"
1+"
1h
0n
1t
0""
1("
b11011010 !
0-
13
09
1?
0K
b1111011010 (
b1111011010 *
1Q
0"
#17
1"
#18
1F
0@
14
0.
1G
0A
15
0/
1D
0>
12
0,
1&"
0~
1r
b1111110110 +
0l
1%"
0}
1q
0k
1""
0z
1n
0h
b11101101 !
1K
0E
19
03
b1111101101 (
b1111101101 *
1-
0"
#19
1"
#20
1.
0:
1@
1/
0;
1A
1,
08
1>
1l
0x
b1111111011 +
1~
1k
0w
1}
1h
0t
1z
b11110110 !
0-
13
0?
b1111110110 (
b1111110110 *
1E
0"
#21
1"
#22
1:
04
1;
05
18
02
1x
b1111111101 +
0r
1w
0q
1t
0n
b11111011 !
1?
09
b1111111011 (
b1111111011 *
1-
0"
#23
1"
#24
0.
14
0/
15
0,
12
0l
b1111111110 +
1r
0k
1q
0h
1n
b11111101 !
03
b1111111101 (
b1111111101 *
19
0"
#25
1"
#26
1.
1/
1,
b1111111111 +
1l
1k
1h
b11111110 !
13
b1111111110 (
b1111111110 *
0-
0"
#27
1"
#28
b11111111 !
b1111111111 (
b1111111111 *
1-
0"
#29
1"
#30
0"
#31
1"
#32
1f
1d
1`
1^
1Z
1X
1T
1R
1N
1L
1H
1F
1B
1@
1<
1:
16
14
10
1.
1g
0e
1a
0_
1[
0Y
1U
0S
1O
0M
1I
0G
1C
0A
1=
0;
17
05
11
0/
0)
0"
0&
#33
1"
#34
0"
