$date
	Fri Jul  3 17:44:07 2020
$end
$version
	Icarus Verilog
$end
$timescale
	1ps
$end
$scope module Switch_tb $end
$var wire 1 ! out $end
$var reg 1 " clk $end
$var reg 1 # off $end
$var reg 1 $ on $end
$scope module SWITCH $end
$var wire 1 " clk $end
$var wire 1 # off $end
$var wire 1 $ on $end
$var wire 1 ! out $end
$scope module SWITCH $end
$var wire 1 " clk $end
$var wire 1 % in $end
$var reg 1 ! out $end
$upscope $end
$upscope $end
$upscope $end
$enddefinitions $end
#0
$dumpvars
0%
0$
0#
0"
0!
$end
#1
1"
#2
0"
#3
1"
#4
0"
#5
1"
#6
0"
#7
1"
#8
0"
#9
1"
#10
1%
0"
1$
#11
1"
#12
1!
1%
0"
0$
#13
1"
#14
0"
#15
1"
#16
0"
#17
1"
#18
0"
#19
1"
#20
0"
#21
1"
#22
0%
0"
1#
#23
1"
#24
0!
0%
0"
0#
#25
1"
#26
0"
#27
1"
#28
0"
#29
1"
#30
0"
#31
1"
#32
0"
#33
1"
#34
0"
